uart.vcd
$date
  Sun Apr 28 23:34:49 2024
$end
$version
  GHDL v0
$end
$timescale
  1 fs
$end
$scope module standard $end
$upscope $end
$scope module std_logic_1164 $end
$upscope $end
$scope module std_logic_arith $end
$upscope $end
$scope module textio $end
$upscope $end
$scope module std_logic_textio $end
$upscope $end
$scope module std_logic_unsigned $end
$upscope $end
$scope module numeric_std $end
$upscope $end
$scope module testbench $end
$var reg 1 ! clk $end
$var reg 1 " rst $end
$var reg 1 # din $end
$var reg 8 $ dout[7:0] $end
$var reg 1 % dout_vld $end
$var reg 1 & running $end
$comment din_state is not handled $end
$scope module dut $end
$var reg 1 ' clk $end
$var reg 1 ( rst $end
$var reg 1 ) din $end
$var reg 8 * dout[7:0] $end
$var reg 1 + dout_vld $end
$var reg 3 , din_buf[2:0] $end
$var reg 8 - shift_register[7:0] $end
$var reg 4 . cnt_1_order[3:0] $end
$var reg 1 / midbit $end
$var reg 4 0 cnt_2_order[3:0] $end
$var reg 1 1 cmp_midbits $end
$var reg 1 2 re_wire $end
$scope module fsm $end
$var reg 1 3 clk $end
$var reg 1 4 rst $end
$var reg 1 5 stop $end
$var reg 1 6 inp $end
$var reg 1 7 midb $end
$var reg 1 8 re $end
$var reg 1 9 vld $end
$comment current_state is not handled $end
$comment next_state is not handled $end
$upscope $end
$upscope $end
$upscope $end
$enddefinitions $end
#0
0!
1"
1#
b00000000 $
0%
1&
0'
1(
1)
b00000000 *
0+
b111 ,
b00000000 -
b0000 .
0/
b0000 0
01
12
03
14
05
16
07
18
09
#3255208333
1!
1'
13
#6510416666
0!
0'
03
#9765624999
1!
1'
13
#13020833332
0!
0'
03
#16276041665
1!
1'
13
#19531249998
0!
0'
03
#22786458331
1!
1'
13
#26041666664
0!
0'
03
#29296874997
1!
1'
13
#32552083330
0!
0"
0'
0(
03
04
#35807291663
1!
1'
b0001 .
13
#39062499996
0!
0'
03
#42317708329
1!
1'
b0010 .
13
#45572916662
0!
0'
03
#48828124995
1!
1'
b0011 .
13
#52083333328
0!
0'
03
#55338541661
1!
1'
b0100 .
13
#58593749994
0!
0'
03
#61848958327
1!
1'
b0101 .
13
#65104166660
0!
0#
0'
0)
03
#68359374993
1!
1'
b110 ,
b0110 .
13
#71614583326
0!
0'
03
#74869791659
1!
1'
b100 ,
b0111 .
13
#78124999992
0!
0'
03
#81380208325
1!
1'
b000 ,
b1000 .
13
06
#84635416658
0!
0'
03
#87890624991
1!
1'
b1001 .
13
#91145833324
0!
0'
03
#94401041657
1!
1'
b1010 .
13
#97656249990
0!
0'
03
#100911458323
1!
1'
b1011 .
1/
13
17
#104166666656
0!
0'
03
#107421874989
1!
1'
b1100 .
0/
02
13
07
08
#110677083322
0!
0'
03
#113932291655
1!
1'
b1101 .
13
#117187499988
0!
0'
03
#120442708321
1!
1'
b1110 .
13
#123697916654
0!
0'
03
#126953124987
1!
1'
b1111 .
13
#130208333320
0!
0'
03
#133463541653
1!
1'
b0000 .
13
#136718749986
0!
0'
03
#139973958319
1!
1'
b0001 .
13
#143229166652
0!
0'
03
#146484374985
1!
1'
b0010 .
13
#149739583318
0!
0'
03
#152994791651
1!
1'
b0011 .
13
#156249999984
0!
0'
03
#159505208317
1!
1'
b0100 .
13
#162760416650
0!
0'
03
#166015624983
1!
1'
b0101 .
13
#169270833316
0!
1#
0'
1)
03
#172526041649
1!
1'
b001 ,
b0110 .
13
#175781249982
0!
0'
03
#179036458315
1!
1'
b011 ,
b0111 .
13
#182291666648
0!
0'
03
#185546874981
1!
1'
b111 ,
b1000 .
13
16
#188802083314
0!
0'
03
#192057291647
1!
1'
b1001 .
13
#195312499980
0!
0'
03
#198567708313
1!
1'
b1010 .
13
#201822916646
0!
0'
03
#205078124979
1!
1'
b10000000 -
b1011 .
1/
13
17
#208333333312
0!
0'
03
#211588541645
1!
1'
b1100 .
0/
b0001 0
13
07
08
#214843749978
0!
0'
03
#218098958311
1!
1'
b1101 .
13
#221354166644
0!
0'
03
#224609374977
1!
1'
b1110 .
13
#227864583310
0!
0'
03
#231119791643
1!
1'
b1111 .
13
#234374999976
0!
0'
03
#237630208309
1!
1'
b0000 .
13
#240885416642
0!
0'
03
#244140624975
1!
1'
b0001 .
13
#247395833308
0!
0'
03
#250651041641
1!
1'
b0010 .
13
#253906249974
0!
0'
03
#257161458307
1!
1'
b0011 .
13
#260416666640
0!
0'
03
#263671874973
1!
1'
b0100 .
13
#266927083306
0!
0'
03
#270182291639
1!
1'
b0101 .
13
#273437499972
0!
0'
03
#276692708305
1!
1'
b0110 .
13
#279947916638
0!
0'
03
#283203124971
1!
1'
b0111 .
13
#286458333304
0!
0'
03
#289713541637
1!
1'
b1000 .
13
#292968749970
0!
0'
03
#296223958303
1!
1'
b1001 .
13
#299479166636
0!
0'
03
#302734374969
1!
1'
b1010 .
13
#305989583302
0!
0'
03
#309244791635
1!
1'
b11000000 -
b1011 .
1/
13
17
#312499999968
0!
0'
03
#315755208301
1!
1'
b1100 .
0/
b0010 0
13
07
#319010416634
0!
0'
03
#322265624967
1!
1'
b1101 .
13
#325520833300
0!
0'
03
#328776041633
1!
1'
b1110 .
13
#332031249966
0!
0'
03
#335286458299
1!
1'
b1111 .
13
#338541666632
0!
0'
03
#341796874965
1!
1'
b0000 .
13
#345052083298
0!
0'
03
#348307291631
1!
1'
b0001 .
13
#351562499964
0!
0'
03
#354817708297
1!
1'
b0010 .
13
#358072916630
0!
0'
03
#361328124963
1!
1'
b0011 .
13
#364583333296
0!
0'
03
#367838541629
1!
1'
b0100 .
13
#371093749962
0!
0'
03
#374348958295
1!
1'
b0101 .
13
#377604166628
0!
0'
03
#380859374961
1!
1'
b0110 .
13
#384114583294
0!
0'
03
#387369791627
1!
1'
b0111 .
13
#390624999960
0!
0'
03
#393880208293
1!
1'
b1000 .
13
#397135416626
0!
0'
03
#400390624959
1!
1'
b1001 .
13
#403645833292
0!
0'
03
#406901041625
1!
1'
b1010 .
13
#410156249958
0!
0'
03
#413411458291
1!
1'
b11100000 -
b1011 .
1/
13
17
#416666666624
0!
0'
03
#419921874957
1!
1'
b1100 .
0/
b0011 0
13
07
#423177083290
0!
0'
03
#426432291623
1!
1'
b1101 .
13
#429687499956
0!
0'
03
#432942708289
1!
1'
b1110 .
13
#436197916622
0!
0'
03
#439453124955
1!
1'
b1111 .
13
#442708333288
0!
0'
03
#445963541621
1!
1'
b0000 .
13
#449218749954
0!
0'
03
#452473958287
1!
1'
b0001 .
13
#455729166620
0!
0'
03
#458984374953
1!
1'
b0010 .
13
#462239583286
0!
0'
03
#465494791619
1!
1'
b0011 .
13
#468749999952
0!
0'
03
#472005208285
1!
1'
b0100 .
13
#475260416618
0!
0'
03
#478515624951
1!
1'
b0101 .
13
#481770833284
0!
0#
0'
0)
03
#485026041617
1!
1'
b110 ,
b0110 .
13
#488281249950
0!
0'
03
#491536458283
1!
1'
b100 ,
b0111 .
13
#494791666616
0!
0'
03
#498046874949
1!
1'
b000 ,
b1000 .
13
06
#501302083282
0!
0'
03
#504557291615
1!
1'
b1001 .
13
#507812499948
0!
0'
03
#511067708281
1!
1'
b1010 .
13
#514322916614
0!
0'
03
#517578124947
1!
1'
b01110000 -
b1011 .
1/
13
17
#520833333280
0!
0'
03
#524088541613
1!
1'
b1100 .
0/
b0100 0
13
07
#527343749946
0!
0'
03
#530598958279
1!
1'
b1101 .
13
#533854166612
0!
0'
03
#537109374945
1!
1'
b1110 .
13
#540364583278
0!
0'
03
#543619791611
1!
1'
b1111 .
13
#546874999944
0!
0'
03
#550130208277
1!
1'
b0000 .
13
#553385416610
0!
0'
03
#556640624943
1!
1'
b0001 .
13
#559895833276
0!
0'
03
#563151041609
1!
1'
b0010 .
13
#566406249942
0!
0'
03
#569661458275
1!
1'
b0011 .
13
#572916666608
0!
0'
03
#576171874941
1!
1'
b0100 .
13
#579427083274
0!
0'
03
#582682291607
1!
1'
b0101 .
13
#585937499940
0!
0'
03
#589192708273
1!
1'
b0110 .
13
#592447916606
0!
0'
03
#595703124939
1!
1'
b0111 .
13
#598958333272
0!
0'
03
#602213541605
1!
1'
b1000 .
13
#605468749938
0!
0'
03
#608723958271
1!
1'
b1001 .
13
#611979166604
0!
0'
03
#615234374937
1!
1'
b1010 .
13
#618489583270
0!
0'
03
#621744791603
1!
1'
b00111000 -
b1011 .
1/
13
17
#624999999936
0!
0'
03
#628255208269
1!
1'
b1100 .
0/
b0101 0
13
07
#631510416602
0!
0'
03
#634765624935
1!
1'
b1101 .
13
#638020833268
0!
0'
03
#641276041601
1!
1'
b1110 .
13
#644531249934
0!
0'
03
#647786458267
1!
1'
b1111 .
13
#651041666600
0!
0'
03
#654296874933
1!
1'
b0000 .
13
#657552083266
0!
0'
03
#660807291599
1!
1'
b0001 .
13
#664062499932
0!
0'
03
#667317708265
1!
1'
b0010 .
13
#670572916598
0!
0'
03
#673828124931
1!
1'
b0011 .
13
#677083333264
0!
0'
03
#680338541597
1!
1'
b0100 .
13
#683593749930
0!
0'
03
#686848958263
1!
1'
b0101 .
13
#690104166596
0!
0'
03
#693359374929
1!
1'
b0110 .
13
#696614583262
0!
0'
03
#699869791595
1!
1'
b0111 .
13
#703124999928
0!
0'
03
#706380208261
1!
1'
b1000 .
13
#709635416594
0!
0'
03
#712890624927
1!
1'
b1001 .
13
#716145833260
0!
0'
03
#719401041593
1!
1'
b1010 .
13
#722656249926
0!
0'
03
#725911458259
1!
1'
b00011100 -
b1011 .
1/
13
17
#729166666592
0!
0'
03
#732421874925
1!
1'
b1100 .
0/
b0110 0
13
07
#735677083258
0!
0'
03
#738932291591
1!
1'
b1101 .
13
#742187499924
0!
0'
03
#745442708257
1!
1'
b1110 .
13
#748697916590
0!
0'
03
#751953124923
1!
1'
b1111 .
13
#755208333256
0!
0'
03
#758463541589
1!
1'
b0000 .
13
#761718749922
0!
0'
03
#764973958255
1!
1'
b0001 .
13
#768229166588
0!
0'
03
#771484374921
1!
1'
b0010 .
13
#774739583254
0!
0'
03
#777994791587
1!
1'
b0011 .
13
#781249999920
0!
0'
03
#784505208253
1!
1'
b0100 .
13
#787760416586
0!
0'
03
#791015624919
1!
1'
b0101 .
13
#794270833252
0!
1#
0'
1)
03
#797526041585
1!
1'
b001 ,
b0110 .
13
#800781249918
0!
0'
03
#804036458251
1!
1'
b011 ,
b0111 .
13
#807291666584
0!
0'
03
#810546874917
1!
1'
b111 ,
b1000 .
13
16
#813802083250
0!
0'
03
#817057291583
1!
1'
b1001 .
13
#820312499916
0!
0'
03
#823567708249
1!
1'
b1010 .
13
#826822916582
0!
0'
03
#830078124915
1!
1'
b10001110 -
b1011 .
1/
13
17
#833333333248
0!
0'
03
#836588541581
1!
1'
b1100 .
0/
b0111 0
13
07
#839843749914
0!
0'
03
#843098958247
1!
1'
b1101 .
13
#846354166580
0!
0'
03
#849609374913
1!
1'
b1110 .
13
#852864583246
0!
0'
03
#856119791579
1!
1'
b1111 .
13
#859374999912
0!
0'
03
#862630208245
1!
1'
b0000 .
13
#865885416578
0!
0'
03
#869140624911
1!
1'
b0001 .
13
#872395833244
0!
0'
03
#875651041577
1!
1'
b0010 .
13
#878906249910
0!
0'
03
#882161458243
1!
1'
b0011 .
13
#885416666576
0!
0'
03
#888671874909
1!
1'
b0100 .
13
#891927083242
0!
0'
03
#895182291575
1!
1'
b0101 .
13
#898437499908
0!
0#
0'
0)
03
#901692708241
1!
1'
b110 ,
b0110 .
13
#904947916574
0!
0'
03
#908203124907
1!
1'
b100 ,
b0111 .
13
#911458333240
0!
0'
03
#914713541573
1!
1'
b000 ,
b1000 .
13
06
#917968749906
0!
0'
03
#921223958239
1!
1'
b1001 .
13
#924479166572
0!
0'
03
#927734374905
1!
1'
b1010 .
13
#930989583238
0!
0'
03
#934244791571
1!
1'
b01000111 -
b1011 .
1/
13
17
#937499999904
0!
0'
03
#940755208237
1!
1'
b1100 .
0/
b1000 0
11
13
15
07
#944010416570
0!
0'
03
#947265624903
1!
b01000111 $
1'
b01000111 *
b1101 .
b0000 0
01
12
13
05
18
#950520833236
0!
0'
03
#953776041569
1!
1'
b1110 .
13
#957031249902
0!
0'
03
#960286458235
1!
1'
b1111 .
13
#963541666568
0!
0'
03
#966796874901
1!
1'
b0000 .
13
#970052083234
0!
0'
03
#973307291567
1!
1'
b0001 .
13
#976562499900
0!
0'
03
#979817708233
1!
1'
b0010 .
13
#983072916566
0!
0'
03
#986328124899
1!
1'
b0011 .
13
#989583333232
0!
0'
03
#992838541565
1!
1'
b0100 .
13
#996093749898
0!
0'
03
#999348958231
1!
1'
b0101 .
13
#1002604166564
0!
1#
0'
1)
03
#1005859374897
1!
1'
b001 ,
b0110 .
13
#1009114583230
0!
0'
03
#1012369791563
1!
1'
b011 ,
b0111 .
13
#1015624999896
0!
0'
03
#1018880208229
1!
1'
b111 ,
b1000 .
13
16
#1022135416562
0!
0'
03
#1025390624895
1!
1'
b1001 .
13
#1028645833228
0!
0'
03
#1031901041561
1!
1'
b1010 .
13
#1035156249894
0!
0'
03
#1038411458227
1!
1'
b10100011 -
b1011 .
1/
13
17
#1041666666560
0!
0'
03
#1044921874893
1!
1%
1'
1+
b1100 .
0/
13
07
19
#1048177083226
0!
0'
03
#1051432291559
1!
0%
1'
0+
b1101 .
13
09
#1054687499892
0!
0'
03
#1057942708225
1!
1'
b1110 .
13
#1061197916558
0!
0'
03
#1064453124891
1!
1'
b1111 .
13
#1067708333224
0!
0'
03
#1070963541557
1!
1'
b0000 .
13
#1074218749890
0!
0'
03
#1077473958223
1!
1'
b0001 .
13
#1080729166556
0!
0'
03
#1083984374889
1!
1'
b0010 .
13
#1087239583222
0!
0'
03
#1090494791555
1!
1'
b0011 .
13
#1093749999888
0!
0'
03
#1097005208221
1!
1'
b0100 .
13
#1100260416554
0!
0'
03
#1103515624887
1!
1'
b0101 .
13
#1106770833220
0!
0'
03
#1110026041553
1!
1'
b0110 .
13
#1113281249886
0!
0'
03
#1116536458219
1!
1'
b0111 .
13
#1119791666552
0!
0'
03
#1123046874885
1!
1'
b1000 .
13
#1126302083218
0!
0'
03
#1129557291551
1!
1'
b1001 .
13
#1132812499884
0!
0'
03
#1136067708217
1!
1'
b1010 .
13
#1139322916550
0!
0'
03
#1142578124883
1!
1'
b11010001 -
b1011 .
1/
13
17
#1145833333216
0!
0'
03
#1149088541549
1!
1'
b1100 .
0/
13
07
#1152343749882
0!
0'
03
#1155598958215
1!
1'
b1101 .
13
#1158854166548
0!
0'
03
#1162109374881
1!
1'
b1110 .
13
#1165364583214
0!
0'
03
#1168619791547
1!
1'
b1111 .
13
#1171874999880
0!
0'
03
#1175130208213
1!
1'
b0000 .
13
#1178385416546
0!
0'
03
#1181640624879
1!
1'
b0001 .
13
#1184895833212
0!
0'
03
#1188151041545
1!
1'
b0010 .
13
#1191406249878
0!
0'
03
#1194661458211
1!
1'
b0011 .
13
#1197916666544
0!
0'
03
#1201171874877
1!
1'
b0100 .
13
#1204427083210
0!
0'
03
#1207682291543
1!
1'
b0101 .
13
#1210937499876
0!
0'
03
#1214192708209
1!
1'
b0110 .
13
#1217447916542
0!
0'
03
#1220703124875
1!
1'
b0111 .
13
#1223958333208
0!
0'
03
#1227213541541
1!
1'
b1000 .
13
#1230468749874
0!
0'
03
#1233723958207
1!
1'
b1001 .
13
#1236979166540
0!
0'
03
#1240234374873
1!
1'
b1010 .
13
#1243489583206
0!
0'
03
#1246744791539
1!
1'
b11101000 -
b1011 .
1/
13
17
#1249999999872
0!
0'
03
#1253255208205
1!
1'
b1100 .
0/
13
07
#1256510416538
0!
0'
03
#1259765624871
1!
1'
b1101 .
13
#1263020833204
0!
0'
03
#1266276041537
1!
1'
b1110 .
13
#1269531249870
0!
0'
03
#1272786458203
1!
1'
b1111 .
13
#1276041666536
0!
0'
03
#1279296874869
1!
1'
b0000 .
13
#1282552083202
0!
0'
03
#1285807291535
1!
1'
b0001 .
13
#1289062499868
0!
0'
03
#1292317708201
1!
1'
b0010 .
13
#1295572916534
0!
0'
03
#1298828124867
1!
1'
b0011 .
13
#1302083333200
0!
0'
03
#1305338541533
1!
1'
b0100 .
13
#1308593749866
0!
0'
03
#1311848958199
1!
1'
b0101 .
13
#1315104166532
0!
0'
03
#1318359374865
1!
1'
b0110 .
13
#1321614583198
0!
0'
03
#1324869791531
1!
1'
b0111 .
13
#1328124999864
0!
0'
03
#1331380208197
1!
1'
b1000 .
13
#1334635416530
0!
0'
03
#1337890624863
1!
1'
b1001 .
13
#1341145833196
0!
0'
03
#1344401041529
1!
1'
b1010 .
13
#1347656249862
0!
0'
03
#1350911458195
1!
1'
b11110100 -
b1011 .
1/
13
17
#1354166666528
0!
0'
03
#1357421874861
1!
1'
b1100 .
0/
13
07
#1360677083194
0!
0'
03
#1363932291527
1!
1'
b1101 .
13
#1367187499860
0!
0'
03
#1370442708193
1!
1'
b1110 .
13
#1373697916526
0!
0'
03
#1376953124859
1!
1'
b1111 .
13
#1380208333192
0!
0'
03
#1383463541525
1!
1'
b0000 .
13
#1386718749858
0!
0'
03
#1389973958191
1!
1'
b0001 .
13
#1393229166524
0!
0'
03
#1396484374857
1!
1'
b0010 .
13
#1399739583190
0!
0'
03
#1402994791523
1!
1'
b0011 .
13
#1406249999856
0!
0'
03
#1409505208189
1!
1'
b0100 .
13
#1412760416522
0!
0'
03
#1416015624855
1!
1'
b0101 .
13
#1419270833188
0!
0'
03
#1422526041521
1!
1'
b0110 .
13
#1425781249854
0!
0'
03
#1429036458187
1!
1'
b0111 .
13
#1432291666520
0!
0#
0'
0)
03
#1435546874853
1!
1'
b110 ,
b1000 .
13
#1438802083186
0!
0'
03
#1442057291519
1!
1'
b100 ,
b1001 .
13
#1445312499852
0!
0'
03
#1448567708185
1!
1'
b000 ,
b1010 .
13
06
#1451822916518
0!
0'
03
#1455078124851
1!
1'
b01111010 -
b1011 .
1/
13
17
#1458333333184
0!
0'
03
#1461588541517
1!
1'
b1100 .
0/
02
13
07
08
#1464843749850
0!
0'
03
#1468098958183
1!
1'
b1101 .
13
#1471354166516
0!
0'
03
#1474609374849
1!
1'
b1110 .
13
#1477864583182
0!
0'
03
#1481119791515
1!
1'
b1111 .
13
#1484374999848
0!
0'
03
#1487630208181
1!
1'
b0000 .
13
#1490885416514
0!
0'
03
#1494140624847
1!
1'
b0001 .
13
#1497395833180
0!
0'
03
#1500651041513
1!
1'
b0010 .
13
#1503906249846
0!
0'
03
#1507161458179
1!
1'
b0011 .
13
#1510416666512
0!
0'
03
#1513671874845
1!
1'
b0100 .
13
#1516927083178
0!
0'
03
#1520182291511
1!
1'
b0101 .
13
#1523437499844
0!
0'
03
#1526692708177
1!
1'
b0110 .
13
#1529947916510
0!
0'
03
#1533203124843
1!
1'
b0111 .
13
#1536458333176
0!
1#
0'
1)
03
#1539713541509
1!
1'
b001 ,
b1000 .
13
#1542968749842
0!
0'
03
#1546223958175
1!
1'
b011 ,
b1001 .
13
#1549479166508
0!
0'
03
#1552734374841
1!
1'
b111 ,
b1010 .
13
16
#1555989583174
0!
0'
03
#1559244791507
1!
1'
b10111101 -
b1011 .
1/
13
17
#1562499999840
0!
0'
03
#1565755208173
1!
1'
b1100 .
0/
b0001 0
13
07
08
#1569010416506
0!
0'
03
#1572265624839
1!
1'
b1101 .
13
#1575520833172
0!
0'
03
#1578776041505
1!
1'
b1110 .
13
#1582031249838
0!
0'
03
#1585286458171
1!
1'
b1111 .
13
#1588541666504
0!
0'
03
#1591796874837
1!
1'
b0000 .
13
#1595052083170
0!
0'
03
#1598307291503
1!
1'
b0001 .
13
#1601562499836
0!
0'
03
#1604817708169
1!
1'
b0010 .
13
#1608072916502
0!
0'
03
#1611328124835
1!
1'
b0011 .
13
#1614583333168
0!
0'
03
#1617838541501
1!
1'
b0100 .
13
#1621093749834
0!
0'
03
#1624348958167
1!
1'
b0101 .
13
#1627604166500
0!
0'
03
#1630859374833
1!
1'
b0110 .
13
#1634114583166
0!
0'
03
#1637369791499
1!
1'
b0111 .
13
#1640624999832
0!
0#
0'
0)
03
#1643880208165
1!
1'
b110 ,
b1000 .
13
#1647135416498
0!
0'
03
#1650390624831
1!
1'
b100 ,
b1001 .
13
#1653645833164
0!
0'
03
#1656901041497
1!
1'
b000 ,
b1010 .
13
06
#1660156249830
0!
0'
03
#1663411458163
1!
1'
b01011110 -
b1011 .
1/
13
17
#1666666666496
0!
0'
03
#1669921874829
1!
1'
b1100 .
0/
b0010 0
13
07
#1673177083162
0!
0'
03
#1676432291495
1!
1'
b1101 .
13
#1679687499828
0!
0'
03
#1682942708161
1!
1'
b1110 .
13
#1686197916494
0!
0'
03
#1689453124827
1!
1'
b1111 .
13
#1692708333160
0!
0'
03
#1695963541493
1!
1'
b0000 .
13
#1699218749826
0!
0'
03
#1702473958159
1!
1'
b0001 .
13
#1705729166492
0!
0'
03
#1708984374825
1!
1'
b0010 .
13
#1712239583158
0!
0'
03
#1715494791491
1!
1'
b0011 .
13
#1718749999824
0!
0'
03
#1722005208157
1!
1'
b0100 .
13
#1725260416490
0!
0'
03
#1728515624823
1!
1'
b0101 .
13
#1731770833156
0!
0'
03
#1735026041489
1!
1'
b0110 .
13
#1738281249822
0!
0'
03
#1741536458155
1!
1'
b0111 .
13
#1744791666488
0!
1#
0'
1)
03
#1748046874821
1!
1'
b001 ,
b1000 .
13
#1751302083154
0!
0'
03
#1754557291487
1!
1'
b011 ,
b1001 .
13
#1757812499820
0!
0'
03
#1761067708153
1!
1'
b111 ,
b1010 .
13
16
#1764322916486
0!
0'
03
#1767578124819
1!
1'
b10101111 -
b1011 .
1/
13
17
#1770833333152
0!
0'
03
#1774088541485
1!
1'
b1100 .
0/
b0011 0
13
07
#1777343749818
0!
0'
03
#1780598958151
1!
1'
b1101 .
13
#1783854166484
0!
0'
03
#1787109374817
1!
1'
b1110 .
13
#1790364583150
0!
0'
03
#1793619791483
1!
1'
b1111 .
13
#1796874999816
0!
0'
03
#1800130208149
1!
1'
b0000 .
13
#1803385416482
0!
0'
03
#1806640624815
1!
1'
b0001 .
13
#1809895833148
0!
0'
03
#1813151041481
1!
1'
b0010 .
13
#1816406249814
0!
0'
03
#1819661458147
1!
1'
b0011 .
13
#1822916666480
0!
0'
03
#1826171874813
1!
1'
b0100 .
13
#1829427083146
0!
0'
03
#1832682291479
1!
1'
b0101 .
13
#1835937499812
0!
0'
03
#1839192708145
1!
1'
b0110 .
13
#1842447916478
0!
0'
03
#1845703124811
1!
1'
b0111 .
13
#1848958333144
0!
0#
0'
0)
03
#1852213541477
1!
1'
b110 ,
b1000 .
13
#1855468749810
0!
0'
03
#1858723958143
1!
1'
b100 ,
b1001 .
13
#1861979166476
0!
0'
03
#1865234374809
1!
1'
b000 ,
b1010 .
13
06
#1868489583142
0!
0'
03
#1871744791475
1!
1'
b01010111 -
b1011 .
1/
13
17
#1874999999808
0!
0'
03
#1878255208141
1!
1'
b1100 .
0/
b0100 0
13
07
#1881510416474
0!
0'
03
#1884765624807
1!
1'
b1101 .
13
#1888020833140
0!
0'
03
#1891276041473
1!
1'
b1110 .
13
#1894531249806
0!
0'
03
#1897786458139
1!
1'
b1111 .
13
#1901041666472
0!
0'
03
#1904296874805
1!
1'
b0000 .
13
#1907552083138
0!
0'
03
#1910807291471
1!
1'
b0001 .
13
#1914062499804
0!
0'
03
#1917317708137
1!
1'
b0010 .
13
#1920572916470
0!
0'
03
#1923828124803
1!
1'
b0011 .
13
#1927083333136
0!
0'
03
#1930338541469
1!
1'
b0100 .
13
#1933593749802
0!
0'
03
#1936848958135
1!
1'
b0101 .
13
#1940104166468
0!
0'
03
#1943359374801
1!
1'
b0110 .
13
#1946614583134
0!
0'
03
#1949869791467
1!
1'
b0111 .
13
#1953124999800
0!
1#
0'
1)
03
#1956380208133
1!
1'
b001 ,
b1000 .
13
#1959635416466
0!
0'
03
#1962890624799
1!
1'
b011 ,
b1001 .
13
#1966145833132
0!
0'
03
#1969401041465
1!
1'
b111 ,
b1010 .
13
16
#1972656249798
0!
0'
03
#1975911458131
1!
1'
b10101011 -
b1011 .
1/
13
17
#1979166666464
0!
0'
03
#1982421874797
1!
1'
b1100 .
0/
b0101 0
13
07
#1985677083130
0!
0'
03
#1988932291463
1!
1'
b1101 .
13
#1992187499796
0!
0'
03
#1995442708129
1!
1'
b1110 .
13
#1998697916462
0!
0'
03
#2001953124795
1!
1'
b1111 .
13
#2005208333128
0!
0'
03
#2008463541461
1!
1'
b0000 .
13
#2011718749794
0!
0'
03
#2014973958127
1!
1'
b0001 .
13
#2018229166460
0!
0'
03
#2021484374793
1!
1'
b0010 .
13
#2024739583126
0!
0'
03
#2027994791459
1!
1'
b0011 .
13
#2031249999792
0!
0'
03
#2034505208125
1!
1'
b0100 .
13
#2037760416458
0!
0'
03
#2041015624791
1!
1'
b0101 .
13
#2044270833124
0!
0'
03
#2047526041457
1!
1'
b0110 .
13
#2050781249790
0!
0'
03
#2054036458123
1!
1'
b0111 .
13
#2057291666456
0!
0#
0'
0)
03
#2060546874789
1!
1'
b110 ,
b1000 .
13
#2063802083122
0!
0'
03
#2067057291455
1!
1'
b100 ,
b1001 .
13
#2070312499788
0!
0'
03
#2073567708121
1!
1'
b000 ,
b1010 .
13
06
#2076822916454
0!
0'
03
#2080078124787
1!
1'
b01010101 -
b1011 .
1/
13
17
#2083333333120
0!
0'
03
#2086588541453
1!
1'
b1100 .
0/
b0110 0
13
07
#2089843749786
0!
0'
03
#2093098958119
1!
1'
b1101 .
13
#2096354166452
0!
0'
03
#2099609374785
1!
1'
b1110 .
13
#2102864583118
0!
0'
03
#2106119791451
1!
1'
b1111 .
13
#2109374999784
0!
0'
03
#2112630208117
1!
1'
b0000 .
13
#2115885416450
0!
0'
03
#2119140624783
1!
1'
b0001 .
13
#2122395833116
0!
0'
03
#2125651041449
1!
1'
b0010 .
13
#2128906249782
0!
0'
03
#2132161458115
1!
1'
b0011 .
13
#2135416666448
0!
0'
03
#2138671874781
1!
1'
b0100 .
13
#2141927083114
0!
0'
03
#2145182291447
1!
1'
b0101 .
13
#2148437499780
0!
0'
03
#2151692708113
1!
1'
b0110 .
13
#2154947916446
0!
0'
03
#2158203124779
1!
1'
b0111 .
13
#2161458333112
0!
1#
0'
1)
03
#2164713541445
1!
1'
b001 ,
b1000 .
13
#2167968749778
0!
0'
03
#2171223958111
1!
1'
b011 ,
b1001 .
13
#2174479166444
0!
0'
03
#2177734374777
1!
1'
b111 ,
b1010 .
13
16
#2180989583110
0!
0'
03
#2184244791443
1!
1'
b10101010 -
b1011 .
1/
13
17
#2187499999776
0!
0'
03
#2190755208109
1!
1'
b1100 .
0/
b0111 0
13
07
#2194010416442
0!
0'
03
#2197265624775
1!
1'
b1101 .
13
#2200520833108
0!
0'
03
#2203776041441
1!
1'
b1110 .
13
#2207031249774
0!
0'
03
#2210286458107
1!
1'
b1111 .
13
#2213541666440
0!
0'
03
#2216796874773
1!
1'
b0000 .
13
#2220052083106
0!
0'
03
#2223307291439
1!
1'
b0001 .
13
#2226562499772
0!
0'
03
#2229817708105
1!
1'
b0010 .
13
#2233072916438
0!
0'
03
#2236328124771
1!
1'
b0011 .
13
#2239583333104
0!
0'
03
#2242838541437
1!
1'
b0100 .
13
#2246093749770
0!
0'
03
#2249348958103
1!
1'
b0101 .
13
#2252604166436
0!
0'
03
#2255859374769
1!
1'
b0110 .
13
#2259114583102
0!
0'
03
#2262369791435
1!
1'
b0111 .
13
#2265624999768
0!
0#
0'
0)
03
#2268880208101
1!
1'
b110 ,
b1000 .
13
#2272135416434
0!
0'
03
#2275390624767
1!
1'
b100 ,
b1001 .
13
#2278645833100
0!
0'
03
#2281901041433
1!
1'
b000 ,
b1010 .
13
06
#2285156249766
0!
0'
03
#2288411458099
1!
1'
b01010101 -
b1011 .
1/
13
17
#2291666666432
0!
0'
03
#2294921874765
1!
1'
b1100 .
0/
b1000 0
11
13
15
07
#2298177083098
0!
0'
03
#2301432291431
1!
b01010101 $
1'
b01010101 *
b1101 .
b0000 0
01
12
13
05
18
#2304687499764
0!
0'
03
#2307942708097
1!
1'
b1110 .
13
#2311197916430
0!
0'
03
#2314453124763
1!
1'
b1111 .
13
#2317708333096
0!
0'
03
#2320963541429
1!
1'
b0000 .
13
#2324218749762
0!
0'
03
#2327473958095
1!
1'
b0001 .
13
#2330729166428
0!
0'
03
#2333984374761
1!
1'
b0010 .
13
#2337239583094
0!
0'
03
#2340494791427
1!
1'
b0011 .
13
#2343749999760
0!
0'
03
#2347005208093
1!
1'
b0100 .
13
#2350260416426
0!
0'
03
#2353515624759
1!
1'
b0101 .
13
#2356770833092
0!
0'
03
#2360026041425
1!
1'
b0110 .
13
#2363281249758
0!
0'
03
#2366536458091
1!
1'
b0111 .
13
#2369791666424
0!
1#
0'
1)
03
#2373046874757
1!
1'
b001 ,
b1000 .
13
#2376302083090
0!
0'
03
#2379557291423
1!
1'
b011 ,
b1001 .
13
#2382812499756
0!
0'
03
#2386067708089
1!
1'
b111 ,
b1010 .
13
16
#2389322916422
0!
0'
03
#2392578124755
1!
1'
b10101010 -
b1011 .
1/
13
17
#2395833333088
0!
0'
03
#2399088541421
1!
1%
1'
1+
b1100 .
0/
13
07
19
#2402343749754
0!
0'
03
#2405598958087
1!
0%
1'
0+
b1101 .
13
09
#2408854166420
0!
0'
03
#2412109374753
1!
1'
b1110 .
13
#2415364583086
0!
0'
03
#2418619791419
1!
1'
b1111 .
13
#2421874999752
0!
0'
03
#2425130208085
1!
1'
b0000 .
13
#2428385416418
0!
0'
03
#2431640624751
1!
1'
b0001 .
13
#2434895833084
0!
0'
03
#2438151041417
1!
1'
b0010 .
13
#2441406249750
0!
0'
03
#2444661458083
1!
1'
b0011 .
13
#2447916666416
0!
0'
03
